lab 3/tba_tb.vcd
$date
  Sat May 20 15:22:16 2023
$end
$version
  GHDL v0
$end
$timescale
  1 fs
$end
$var reg 2 ! a[1:0] $end
$var reg 2 " b[1:0] $end
$var reg 2 # sum[1:0] $end
$var reg 1 $ cin $end
$var reg 1 % cout $end
$scope module tba0 $end
$var reg 2 & a[1:0] $end
$var reg 2 ' b[1:0] $end
$var reg 1 ( cin $end
$var reg 2 ) sum[1:0] $end
$var reg 1 * cout $end
$var reg 1 + c $end
$scope module fa0 $end
$var reg 1 , a $end
$var reg 1 - b $end
$var reg 1 . cin $end
$var reg 1 / sum $end
$var reg 1 0 cout $end
$upscope $end
$scope module fa1 $end
$var reg 1 1 a $end
$var reg 1 2 b $end
$var reg 1 3 cin $end
$var reg 1 4 sum $end
$var reg 1 5 cout $end
$upscope $end
$upscope $end
$enddefinitions $end
#0
b00 !
b00 "
b00 #
0$
0%
b00 &
b00 '
0(
b00 )
0*
0+
0,
0-
0.
0/
00
01
02
03
04
05
#10000000
b01 !
b01 #
b01 &
b01 )
1,
1/
#20000000
b10 !
b10 #
b10 &
b10 )
0,
0/
11
14
#30000000
b11 !
b11 #
b11 &
b11 )
1,
1/
#40000000
b00 !
b01 "
b01 #
b00 &
b01 '
b01 )
0,
1-
01
04
#50000000
b01 !
b10 #
b01 &
b10 )
1+
1,
0/
10
13
14
#60000000
b10 !
b11 #
0%
b10 &
b11 )
0*
0+
0,
1/
00
11
03
14
05
#70000000
b11 !
b00 #
1%
b11 &
b00 )
1*
1+
1,
0/
10
13
04
15
#80000000
b00 !
b10 "
b10 #
0%
b00 &
b10 '
b10 )
0*
0+
0,
0-
00
01
12
03
14
05
#90000000
b01 !
b11 #
b01 &
b11 )
1,
1/
#100000000
b10 !
b00 #
1%
b10 &
b00 )
1*
0,
0/
11
04
15
#110000000
b11 !
b01 #
b11 &
b01 )
1,
1/
#120000000
b00 !
b11 "
b11 #
0%
b00 &
b11 '
b11 )
0*
0,
1-
01
14
05
#130000000
b01 !
b00 #
1%
b01 &
b00 )
1*
1+
1,
0/
10
13
04
15
#140000000
b10 !
b01 #
b10 &
b01 )
0+
0,
1/
00
11
03
04
#150000000
b11 !
b10 #
b11 &
b10 )
1+
1,
0/
10
13
14
#160000000
b00 !
b00 "
b00 #
0%
b00 &
b00 '
b00 )
0*
0+
0,
0-
00
01
02
03
04
05
#170000000
b01 !
b01 #
b01 &
b01 )
1,
1/
#180000000
b10 !
b10 #
b10 &
b10 )
0,
0/
11
14
#190000000
b11 !
b11 #
b11 &
b11 )
1,
1/
#200000000
b00 !
b01 "
b01 #
b00 &
b01 '
b01 )
0,
1-
01
04
#210000000
b01 !
b10 #
b01 &
b10 )
1+
1,
0/
10
13
14
#220000000
b10 !
b11 #
0%
b10 &
b11 )
0*
0+
0,
1/
00
11
03
14
05
#230000000
b11 !
b00 #
1%
b11 &
b00 )
1*
1+
1,
0/
10
13
04
15
#240000000
b00 !
b10 "
b10 #
0%
b00 &
b10 '
b10 )
0*
0+
0,
0-
00
01
12
03
14
05
#250000000
b01 !
b11 #
b01 &
b11 )
1,
1/
#260000000
b10 !
b00 #
1%
b10 &
b00 )
1*
0,
0/
11
04
15
#270000000
b11 !
b01 #
b11 &
b01 )
1,
1/
#280000000
b00 !
b11 "
b11 #
0%
b00 &
b11 '
b11 )
0*
0,
1-
01
14
05
#290000000
b01 !
b00 #
1%
b01 &
b00 )
1*
1+
1,
0/
10
13
04
15
#300000000
b10 !
b01 #
b10 &
b01 )
0+
0,
1/
00
11
03
04
#310000000
b11 !
b10 #
b11 &
b10 )
1+
1,
0/
10
13
14
#320000000
b00 !
b00 "
b00 #
0%
b00 &
b00 '
b00 )
0*
0+
0,
0-
00
01
02
03
04
05
#330000000
b01 !
b01 #
b01 &
b01 )
1,
1/
#340000000
b10 !
b10 #
b10 &
b10 )
0,
0/
11
14
#350000000
b11 !
b11 #
b11 &
b11 )
1,
1/
#360000000
b00 !
b01 "
b01 #
b00 &
b01 '
b01 )
0,
1-
01
04
#370000000
b01 !
b10 #
b01 &
b10 )
1+
1,
0/
10
13
14
#380000000
b10 !
b11 #
0%
b10 &
b11 )
0*
0+
0,
1/
00
11
03
14
05
#390000000
b11 !
b00 #
1%
b11 &
b00 )
1*
1+
1,
0/
10
13
04
15
#400000000
b00 !
b10 "
b10 #
0%
b00 &
b10 '
b10 )
0*
0+
0,
0-
00
01
12
03
14
05
#410000000
b01 !
b11 #
b01 &
b11 )
1,
1/
#420000000
b10 !
b00 #
1%
b10 &
b00 )
1*
0,
0/
11
04
15
#430000000
b11 !
b01 #
b11 &
b01 )
1,
1/
#440000000
b00 !
b11 "
b11 #
0%
b00 &
b11 '
b11 )
0*
0,
1-
01
14
05
#450000000
b01 !
b00 #
1%
b01 &
b00 )
1*
1+
1,
0/
10
13
04
15
#460000000
b10 !
b01 #
b10 &
b01 )
0+
0,
1/
00
11
03
04
#470000000
b11 !
b10 #
b11 &
b10 )
1+
1,
0/
10
13
14
#480000000
b00 !
b00 "
b00 #
0%
b00 &
b00 '
b00 )
0*
0+
0,
0-
00
01
02
03
04
05
#490000000
b01 !
b01 #
b01 &
b01 )
1,
1/
#500000000
b10 !
b10 #
b10 &
b10 )
0,
0/
11
14
#510000000
b11 !
b11 #
b11 &
b11 )
1,
1/
#520000000
b00 !
b01 "
b01 #
b00 &
b01 '
b01 )
0,
1-
01
04
#530000000
b01 !
b10 #
b01 &
b10 )
1+
1,
0/
10
13
14
#540000000
b10 !
b11 #
0%
b10 &
b11 )
0*
0+
0,
1/
00
11
03
14
05
#550000000
b11 !
b00 #
1%
b11 &
b00 )
1*
1+
1,
0/
10
13
04
15
#560000000
b00 !
b10 "
b10 #
0%
b00 &
b10 '
b10 )
0*
0+
0,
0-
00
01
12
03
14
05
#570000000
b01 !
b11 #
b01 &
b11 )
1,
1/
#580000000
b10 !
b00 #
1%
b10 &
b00 )
1*
0,
0/
11
04
15
#590000000
b11 !
b01 #
b11 &
b01 )
1,
1/
#600000000
b00 !
b11 "
b11 #
0%
b00 &
b11 '
b11 )
0*
0,
1-
01
14
05
#610000000
b01 !
b00 #
1%
b01 &
b00 )
1*
1+
1,
0/
10
13
04
15
#620000000
b10 !
b01 #
b10 &
b01 )
0+
0,
1/
00
11
03
04
#630000000
b11 !
b10 #
b11 &
b10 )
1+
1,
0/
10
13
14
#640000000
b00 !
b00 "
b00 #
0%
b00 &
b00 '
b00 )
0*
0+
0,
0-
00
01
02
03
04
05
#650000000
b01 !
b01 #
b01 &
b01 )
1,
1/
#660000000
b10 !
b10 #
b10 &
b10 )
0,
0/
11
14
#670000000
b11 !
b11 #
b11 &
b11 )
1,
1/
#680000000
b00 !
b01 "
b01 #
b00 &
b01 '
b01 )
0,
1-
01
04
#690000000
b01 !
b10 #
b01 &
b10 )
1+
1,
0/
10
13
14
#700000000
b10 !
b11 #
0%
b10 &
b11 )
0*
0+
0,
1/
00
11
03
14
05
#710000000
b11 !
b00 #
1%
b11 &
b00 )
1*
1+
1,
0/
10
13
04
15
#720000000
b00 !
b10 "
b10 #
0%
b00 &
b10 '
b10 )
0*
0+
0,
0-
00
01
12
03
14
05
#730000000
b01 !
b11 #
b01 &
b11 )
1,
1/
#740000000
b10 !
b00 #
1%
b10 &
b00 )
1*
0,
0/
11
04
15
#750000000
b11 !
b01 #
b11 &
b01 )
1,
1/
#760000000
b00 !
b11 "
b11 #
0%
b00 &
b11 '
b11 )
0*
0,
1-
01
14
05
#770000000
b01 !
b00 #
1%
b01 &
b00 )
1*
1+
1,
0/
10
13
04
15
#780000000
b10 !
b01 #
b10 &
b01 )
0+
0,
1/
00
11
03
04
#790000000
b11 !
b10 #
b11 &
b10 )
1+
1,
0/
10
13
14
#800000000
b00 !
b00 "
b00 #
0%
b00 &
b00 '
b00 )
0*
0+
0,
0-
00
01
02
03
04
05
#810000000
b01 !
b01 #
b01 &
b01 )
1,
1/
#820000000
b10 !
b10 #
b10 &
b10 )
0,
0/
11
14
#830000000
b11 !
b11 #
b11 &
b11 )
1,
1/
#840000000
b00 !
b01 "
b01 #
b00 &
b01 '
b01 )
0,
1-
01
04
#850000000
b01 !
b10 #
b01 &
b10 )
1+
1,
0/
10
13
14
#860000000
b10 !
b11 #
0%
b10 &
b11 )
0*
0+
0,
1/
00
11
03
14
05
#870000000
b11 !
b00 #
1%
b11 &
b00 )
1*
1+
1,
0/
10
13
04
15
#880000000
b00 !
b10 "
b10 #
0%
b00 &
b10 '
b10 )
0*
0+
0,
0-
00
01
12
03
14
05
#890000000
b01 !
b11 #
b01 &
b11 )
1,
1/
#900000000
b10 !
b00 #
1%
b10 &
b00 )
1*
0,
0/
11
04
15
#910000000
b11 !
b01 #
b11 &
b01 )
1,
1/
#920000000
b00 !
b11 "
b11 #
0%
b00 &
b11 '
b11 )
0*
0,
1-
01
14
05
#930000000
b01 !
b00 #
1%
b01 &
b00 )
1*
1+
1,
0/
10
13
04
15
#940000000
b10 !
b01 #
b10 &
b01 )
0+
0,
1/
00
11
03
04
#950000000
b11 !
b10 #
b11 &
b10 )
1+
1,
0/
10
13
14
#960000000
b00 !
b00 "
b00 #
0%
b00 &
b00 '
b00 )
0*
0+
0,
0-
00
01
02
03
04
05
#970000000
b01 !
b01 #
b01 &
b01 )
1,
1/
#980000000
b10 !
b10 #
b10 &
b10 )
0,
0/
11
14
#990000000
b11 !
b11 #
b11 &
b11 )
1,
1/
