lab 4/fbas_tb.vcd
$date
  Sat May 20 15:53:33 2023
$end
$version
  GHDL v0
$end
$timescale
  1 fs
$end
$var reg 4 ! a[3:0] $end
$var reg 4 " b[3:0] $end
$var reg 4 # sum[3:0] $end
$var reg 1 $ cin $end
$var reg 1 % cout $end
$var reg 1 & n $end
$scope module fbas0 $end
$var reg 4 ' a[3:0] $end
$var reg 4 ( b[3:0] $end
$var reg 1 ) cin $end
$var reg 4 * sum[3:0] $end
$var reg 1 + cout $end
$var reg 1 , n $end
$var reg 4 - b_xor[3:0] $end
$var reg 1 . l $end
$scope module bit4 $end
$var reg 4 / a[3:0] $end
$var reg 4 0 b[3:0] $end
$var reg 1 1 cin $end
$var reg 4 2 sum[3:0] $end
$var reg 1 3 cout $end
$var reg 1 4 c1 $end
$var reg 1 5 c2 $end
$var reg 1 6 c3 $end
$var reg 1 7 co $end
$scope module fa0 $end
$var reg 1 8 a $end
$var reg 1 9 b $end
$var reg 1 : cin $end
$var reg 1 ; sum $end
$var reg 1 < cout $end
$upscope $end
$scope module fa1 $end
$var reg 1 = a $end
$var reg 1 > b $end
$var reg 1 ? cin $end
$var reg 1 @ sum $end
$var reg 1 A cout $end
$upscope $end
$scope module fa2 $end
$var reg 1 B a $end
$var reg 1 C b $end
$var reg 1 D cin $end
$var reg 1 E sum $end
$var reg 1 F cout $end
$upscope $end
$scope module fa3 $end
$var reg 1 G a $end
$var reg 1 H b $end
$var reg 1 I cin $end
$var reg 1 J sum $end
$var reg 1 K cout $end
$upscope $end
$upscope $end
$upscope $end
$enddefinitions $end
#0
b0000 !
b0000 "
b0000 #
0$
1%
1&
b0000 '
b0000 (
0)
b0000 *
1+
1,
b1111 -
1.
b0000 /
b1111 0
11
b0000 2
13
14
15
16
17
08
19
1:
0;
1<
0=
1>
1?
0@
1A
0B
1C
1D
0E
1F
0G
1H
1I
0J
1K
#10000000
b0001 !
b0001 #
b0001 '
b0001 *
b0001 /
b0001 2
18
1;
#20000000
b0010 !
b0010 #
b0010 '
b0010 *
b0010 /
b0010 2
08
0;
1=
1@
#30000000
b0011 !
b0011 #
b0011 '
b0011 *
b0011 /
b0011 2
18
1;
#40000000
b0000 !
b0001 "
b1111 #
0%
b0000 '
b0001 (
b1111 *
0+
b1110 -
b0000 /
b1110 0
b1111 2
03
04
05
06
07
08
09
1;
0<
0=
0?
1@
0A
0D
1E
0F
0I
1J
0K
#50000000
b0001 !
b0000 #
1%
b0001 '
b0000 *
1+
b0001 /
b0000 2
13
14
15
16
17
18
0;
1<
1?
0@
1A
1D
0E
1F
1I
0J
1K
#60000000
b0010 !
b0001 #
b0010 '
b0001 *
b0010 /
b0001 2
04
08
1;
0<
1=
0?
0@
#70000000
b0011 !
b0010 #
b0011 '
b0010 *
b0011 /
b0010 2
14
18
0;
1<
1?
1@
#80000000
b0000 !
b0010 "
b0010 #
0%
0&
b0000 '
b0010 (
b0010 *
0+
0,
b0010 -
0.
b0000 /
b0010 0
01
b0010 2
03
04
05
06
07
08
0:
0;
0<
0=
0?
1@
0A
0C
0D
0E
0F
0H
0I
0J
0K
#90000000
b0001 !
b0011 #
b0001 '
b0011 *
b0001 /
b0011 2
18
1;
#100000000
b0010 !
b0100 #
b0010 '
b0100 *
b0010 /
b0100 2
15
08
0;
1=
0@
1A
1D
1E
#110000000
b0011 !
b0101 #
b0011 '
b0101 *
b0011 /
b0101 2
18
1;
#120000000
b0000 !
b0011 "
b0011 #
b0000 '
b0011 (
b0011 *
b0011 -
b0000 /
b0011 0
b0011 2
05
08
19
1;
0=
1@
0A
0D
0E
#130000000
b0001 !
b0100 #
b0001 '
b0100 *
b0001 /
b0100 2
14
15
18
0;
1<
1?
0@
1A
1D
1E
#140000000
b0010 !
b0101 #
b0010 '
b0101 *
b0010 /
b0101 2
04
08
1;
0<
1=
0?
0@
#150000000
b0011 !
b0110 #
b0011 '
b0110 *
b0011 /
b0110 2
14
18
0;
1<
1?
1@
#160000000
b0000 !
b0000 "
b0000 #
1%
1&
b0000 '
b0000 (
b0000 *
1+
1,
b1111 -
1.
b0000 /
b1111 0
11
b0000 2
13
14
15
16
17
08
1:
0;
1<
0=
1?
0@
1A
1C
1D
0E
1F
1H
1I
0J
1K
#170000000
b0001 !
b0001 #
b0001 '
b0001 *
b0001 /
b0001 2
18
1;
#180000000
b0010 !
b0010 #
b0010 '
b0010 *
b0010 /
b0010 2
08
0;
1=
1@
#190000000
b0011 !
b0011 #
b0011 '
b0011 *
b0011 /
b0011 2
18
1;
#200000000
b0000 !
b0001 "
b1111 #
0%
b0000 '
b0001 (
b1111 *
0+
b1110 -
b0000 /
b1110 0
b1111 2
03
04
05
06
07
08
09
1;
0<
0=
0?
1@
0A
0D
1E
0F
0I
1J
0K
#210000000
b0001 !
b0000 #
1%
b0001 '
b0000 *
1+
b0001 /
b0000 2
13
14
15
16
17
18
0;
1<
1?
0@
1A
1D
0E
1F
1I
0J
1K
#220000000
b0010 !
b0001 #
b0010 '
b0001 *
b0010 /
b0001 2
04
08
1;
0<
1=
0?
0@
#230000000
b0011 !
b0010 #
b0011 '
b0010 *
b0011 /
b0010 2
14
18
0;
1<
1?
1@
#240000000
b0000 !
b0010 "
b0010 #
0%
0&
b0000 '
b0010 (
b0010 *
0+
0,
b0010 -
0.
b0000 /
b0010 0
01
b0010 2
03
04
05
06
07
08
0:
0;
0<
0=
0?
1@
0A
0C
0D
0E
0F
0H
0I
0J
0K
#250000000
b0001 !
b0011 #
b0001 '
b0011 *
b0001 /
b0011 2
18
1;
#260000000
b0010 !
b0100 #
b0010 '
b0100 *
b0010 /
b0100 2
15
08
0;
1=
0@
1A
1D
1E
#270000000
b0011 !
b0101 #
b0011 '
b0101 *
b0011 /
b0101 2
18
1;
#280000000
b0000 !
b0011 "
b0011 #
b0000 '
b0011 (
b0011 *
b0011 -
b0000 /
b0011 0
b0011 2
05
08
19
1;
0=
1@
0A
0D
0E
#290000000
b0001 !
b0100 #
b0001 '
b0100 *
b0001 /
b0100 2
14
15
18
0;
1<
1?
0@
1A
1D
1E
#300000000
b0010 !
b0101 #
b0010 '
b0101 *
b0010 /
b0101 2
04
08
1;
0<
1=
0?
0@
#310000000
b0011 !
b0110 #
b0011 '
b0110 *
b0011 /
b0110 2
14
18
0;
1<
1?
1@
#320000000
b0000 !
b0000 "
b0000 #
1%
1&
b0000 '
b0000 (
b0000 *
1+
1,
b1111 -
1.
b0000 /
b1111 0
11
b0000 2
13
14
15
16
17
08
1:
0;
1<
0=
1?
0@
1A
1C
1D
0E
1F
1H
1I
0J
1K
#330000000
b0001 !
b0001 #
b0001 '
b0001 *
b0001 /
b0001 2
18
1;
#340000000
b0010 !
b0010 #
b0010 '
b0010 *
b0010 /
b0010 2
08
0;
1=
1@
#350000000
b0011 !
b0011 #
b0011 '
b0011 *
b0011 /
b0011 2
18
1;
#360000000
b0000 !
b0001 "
b1111 #
0%
b0000 '
b0001 (
b1111 *
0+
b1110 -
b0000 /
b1110 0
b1111 2
03
04
05
06
07
08
09
1;
0<
0=
0?
1@
0A
0D
1E
0F
0I
1J
0K
#370000000
b0001 !
b0000 #
1%
b0001 '
b0000 *
1+
b0001 /
b0000 2
13
14
15
16
17
18
0;
1<
1?
0@
1A
1D
0E
1F
1I
0J
1K
#380000000
b0010 !
b0001 #
b0010 '
b0001 *
b0010 /
b0001 2
04
08
1;
0<
1=
0?
0@
#390000000
b0011 !
b0010 #
b0011 '
b0010 *
b0011 /
b0010 2
14
18
0;
1<
1?
1@
#400000000
b0000 !
b0010 "
b0010 #
0%
0&
b0000 '
b0010 (
b0010 *
0+
0,
b0010 -
0.
b0000 /
b0010 0
01
b0010 2
03
04
05
06
07
08
0:
0;
0<
0=
0?
1@
0A
0C
0D
0E
0F
0H
0I
0J
0K
#410000000
b0001 !
b0011 #
b0001 '
b0011 *
b0001 /
b0011 2
18
1;
#420000000
b0010 !
b0100 #
b0010 '
b0100 *
b0010 /
b0100 2
15
08
0;
1=
0@
1A
1D
1E
#430000000
b0011 !
b0101 #
b0011 '
b0101 *
b0011 /
b0101 2
18
1;
#440000000
b0000 !
b0011 "
b0011 #
b0000 '
b0011 (
b0011 *
b0011 -
b0000 /
b0011 0
b0011 2
05
08
19
1;
0=
1@
0A
0D
0E
#450000000
b0001 !
b0100 #
b0001 '
b0100 *
b0001 /
b0100 2
14
15
18
0;
1<
1?
0@
1A
1D
1E
#460000000
b0010 !
b0101 #
b0010 '
b0101 *
b0010 /
b0101 2
04
08
1;
0<
1=
0?
0@
#470000000
b0011 !
b0110 #
b0011 '
b0110 *
b0011 /
b0110 2
14
18
0;
1<
1?
1@
#480000000
b0000 !
b0000 "
b0000 #
1%
1&
b0000 '
b0000 (
b0000 *
1+
1,
b1111 -
1.
b0000 /
b1111 0
11
b0000 2
13
14
15
16
17
08
1:
0;
1<
0=
1?
0@
1A
1C
1D
0E
1F
1H
1I
0J
1K
#490000000
b0001 !
b0001 #
b0001 '
b0001 *
b0001 /
b0001 2
18
1;
#500000000
b0010 !
b0010 #
b0010 '
b0010 *
b0010 /
b0010 2
08
0;
1=
1@
#510000000
b0011 !
b0011 #
b0011 '
b0011 *
b0011 /
b0011 2
18
1;
#520000000
b0000 !
b0001 "
b1111 #
0%
b0000 '
b0001 (
b1111 *
0+
b1110 -
b0000 /
b1110 0
b1111 2
03
04
05
06
07
08
09
1;
0<
0=
0?
1@
0A
0D
1E
0F
0I
1J
0K
#530000000
b0001 !
b0000 #
1%
b0001 '
b0000 *
1+
b0001 /
b0000 2
13
14
15
16
17
18
0;
1<
1?
0@
1A
1D
0E
1F
1I
0J
1K
#540000000
b0010 !
b0001 #
b0010 '
b0001 *
b0010 /
b0001 2
04
08
1;
0<
1=
0?
0@
#550000000
b0011 !
b0010 #
b0011 '
b0010 *
b0011 /
b0010 2
14
18
0;
1<
1?
1@
#560000000
b0000 !
b0010 "
b0010 #
0%
0&
b0000 '
b0010 (
b0010 *
0+
0,
b0010 -
0.
b0000 /
b0010 0
01
b0010 2
03
04
05
06
07
08
0:
0;
0<
0=
0?
1@
0A
0C
0D
0E
0F
0H
0I
0J
0K
#570000000
b0001 !
b0011 #
b0001 '
b0011 *
b0001 /
b0011 2
18
1;
#580000000
b0010 !
b0100 #
b0010 '
b0100 *
b0010 /
b0100 2
15
08
0;
1=
0@
1A
1D
1E
#590000000
b0011 !
b0101 #
b0011 '
b0101 *
b0011 /
b0101 2
18
1;
#600000000
b0000 !
b0011 "
b0011 #
b0000 '
b0011 (
b0011 *
b0011 -
b0000 /
b0011 0
b0011 2
05
08
19
1;
0=
1@
0A
0D
0E
#610000000
b0001 !
b0100 #
b0001 '
b0100 *
b0001 /
b0100 2
14
15
18
0;
1<
1?
0@
1A
1D
1E
#620000000
b0010 !
b0101 #
b0010 '
b0101 *
b0010 /
b0101 2
04
08
1;
0<
1=
0?
0@
#630000000
b0011 !
b0110 #
b0011 '
b0110 *
b0011 /
b0110 2
14
18
0;
1<
1?
1@
#640000000
b0000 !
b0000 "
b0000 #
1%
1&
b0000 '
b0000 (
b0000 *
1+
1,
b1111 -
1.
b0000 /
b1111 0
11
b0000 2
13
14
15
16
17
08
1:
0;
1<
0=
1?
0@
1A
1C
1D
0E
1F
1H
1I
0J
1K
#650000000
b0001 !
b0001 #
b0001 '
b0001 *
b0001 /
b0001 2
18
1;
#660000000
b0010 !
b0010 #
b0010 '
b0010 *
b0010 /
b0010 2
08
0;
1=
1@
#670000000
b0011 !
b0011 #
b0011 '
b0011 *
b0011 /
b0011 2
18
1;
#680000000
b0000 !
b0001 "
b1111 #
0%
b0000 '
b0001 (
b1111 *
0+
b1110 -
b0000 /
b1110 0
b1111 2
03
04
05
06
07
08
09
1;
0<
0=
0?
1@
0A
0D
1E
0F
0I
1J
0K
#690000000
b0001 !
b0000 #
1%
b0001 '
b0000 *
1+
b0001 /
b0000 2
13
14
15
16
17
18
0;
1<
1?
0@
1A
1D
0E
1F
1I
0J
1K
#700000000
b0010 !
b0001 #
b0010 '
b0001 *
b0010 /
b0001 2
04
08
1;
0<
1=
0?
0@
#710000000
b0011 !
b0010 #
b0011 '
b0010 *
b0011 /
b0010 2
14
18
0;
1<
1?
1@
#720000000
b0000 !
b0010 "
b0010 #
0%
0&
b0000 '
b0010 (
b0010 *
0+
0,
b0010 -
0.
b0000 /
b0010 0
01
b0010 2
03
04
05
06
07
08
0:
0;
0<
0=
0?
1@
0A
0C
0D
0E
0F
0H
0I
0J
0K
#730000000
b0001 !
b0011 #
b0001 '
b0011 *
b0001 /
b0011 2
18
1;
#740000000
b0010 !
b0100 #
b0010 '
b0100 *
b0010 /
b0100 2
15
08
0;
1=
0@
1A
1D
1E
#750000000
b0011 !
b0101 #
b0011 '
b0101 *
b0011 /
b0101 2
18
1;
#760000000
b0000 !
b0011 "
b0011 #
b0000 '
b0011 (
b0011 *
b0011 -
b0000 /
b0011 0
b0011 2
05
08
19
1;
0=
1@
0A
0D
0E
#770000000
b0001 !
b0100 #
b0001 '
b0100 *
b0001 /
b0100 2
14
15
18
0;
1<
1?
0@
1A
1D
1E
#780000000
b0010 !
b0101 #
b0010 '
b0101 *
b0010 /
b0101 2
04
08
1;
0<
1=
0?
0@
#790000000
b0011 !
b0110 #
b0011 '
b0110 *
b0011 /
b0110 2
14
18
0;
1<
1?
1@
#800000000
b0000 !
b0000 "
b0000 #
1%
1&
b0000 '
b0000 (
b0000 *
1+
1,
b1111 -
1.
b0000 /
b1111 0
11
b0000 2
13
14
15
16
17
08
1:
0;
1<
0=
1?
0@
1A
1C
1D
0E
1F
1H
1I
0J
1K
#810000000
b0001 !
b0001 #
b0001 '
b0001 *
b0001 /
b0001 2
18
1;
#820000000
b0010 !
b0010 #
b0010 '
b0010 *
b0010 /
b0010 2
08
0;
1=
1@
#830000000
b0011 !
b0011 #
b0011 '
b0011 *
b0011 /
b0011 2
18
1;
#840000000
b0000 !
b0001 "
b1111 #
0%
b0000 '
b0001 (
b1111 *
0+
b1110 -
b0000 /
b1110 0
b1111 2
03
04
05
06
07
08
09
1;
0<
0=
0?
1@
0A
0D
1E
0F
0I
1J
0K
#850000000
b0001 !
b0000 #
1%
b0001 '
b0000 *
1+
b0001 /
b0000 2
13
14
15
16
17
18
0;
1<
1?
0@
1A
1D
0E
1F
1I
0J
1K
#860000000
b0010 !
b0001 #
b0010 '
b0001 *
b0010 /
b0001 2
04
08
1;
0<
1=
0?
0@
#870000000
b0011 !
b0010 #
b0011 '
b0010 *
b0011 /
b0010 2
14
18
0;
1<
1?
1@
#880000000
b0000 !
b0010 "
b0010 #
0%
0&
b0000 '
b0010 (
b0010 *
0+
0,
b0010 -
0.
b0000 /
b0010 0
01
b0010 2
03
04
05
06
07
08
0:
0;
0<
0=
0?
1@
0A
0C
0D
0E
0F
0H
0I
0J
0K
#890000000
b0001 !
b0011 #
b0001 '
b0011 *
b0001 /
b0011 2
18
1;
#900000000
b0010 !
b0100 #
b0010 '
b0100 *
b0010 /
b0100 2
15
08
0;
1=
0@
1A
1D
1E
#910000000
b0011 !
b0101 #
b0011 '
b0101 *
b0011 /
b0101 2
18
1;
#920000000
b0000 !
b0011 "
b0011 #
b0000 '
b0011 (
b0011 *
b0011 -
b0000 /
b0011 0
b0011 2
05
08
19
1;
0=
1@
0A
0D
0E
#930000000
b0001 !
b0100 #
b0001 '
b0100 *
b0001 /
b0100 2
14
15
18
0;
1<
1?
0@
1A
1D
1E
#940000000
b0010 !
b0101 #
b0010 '
b0101 *
b0010 /
b0101 2
04
08
1;
0<
1=
0?
0@
#950000000
b0011 !
b0110 #
b0011 '
b0110 *
b0011 /
b0110 2
14
18
0;
1<
1?
1@
#960000000
b0000 !
b0000 "
b0000 #
1%
1&
b0000 '
b0000 (
b0000 *
1+
1,
b1111 -
1.
b0000 /
b1111 0
11
b0000 2
13
14
15
16
17
08
1:
0;
1<
0=
1?
0@
1A
1C
1D
0E
1F
1H
1I
0J
1K
#970000000
b0001 !
b0001 #
b0001 '
b0001 *
b0001 /
b0001 2
18
1;
#980000000
b0010 !
b0010 #
b0010 '
b0010 *
b0010 /
b0010 2
08
0;
1=
1@
#990000000
b0011 !
b0011 #
b0011 '
b0011 *
b0011 /
b0011 2
18
1;
